Interactively Explore Data Frames of Visualizations • trelliscope
…
Installation

remotes::install_github("trelliscope/trelliscope")

Usage

Trelliscope provides utilities for you to create and visualize data frames of visualizations. The visualizations can be anything you can produce in R, but can also simply be links to images that have already been created.

As a simple example, the package comes with an example data frame of links to Mars Curiosity Rover images.

library(trelliscope)

mars_rover

#> # A tibble: 1,245 × 5
#>    camera                  sol earth_date class   img_src
#>    <chr>                 <int> <chr>      <chr>   <chr>
#>  1 Mars Hand Lens Imager   565 2014-03-09 horizon http://mars.jpl.nasa.gov/m…
#>  2 Mars Hand Lens Imager   565 2014-03-09 horizon http://mars.jpl.nasa.gov/m…
#>  3 Mars Hand Lens Imager   568 2014-03-12 wheel   http://mars.jpl.nasa.gov/m…
#>  4 Mars Hand Lens Imager   568 2014-03-12 wheel   http://mars.jpl.nasa.gov/m…
#>  5 Mars Hand Lens Imager   568 2014-03-12 wheel   http://mars.jpl.nasa.gov/m…
#> # … with 1,240 more rows

Each row represents one image taken by the rover with some associated metadata.

Casting this data frame as a trelliscope data frame gives us the ability to build an interactive display.

d <- as_trelliscope_df(mars_rover, name = "mars rover")
d

#> ℹ Trelliscope data frame. Call show_info() for more information
#> # A tibble: 1,245 × 5
#>    camera                  sol earth_date class   img_src
#>    <chr>                 <int> <chr>      <chr>   <chr>
#>  1 Mars Hand Lens Imager   565 2014-03-09 horizon http://mars.jpl.nasa.gov/m…
#>  2 Mars Hand Lens Imager   565 2014-03-09 horizon http://mars.jpl.nasa.gov/m…
#>  3 Mars Hand Lens Imager   568 2014-03-12 wheel   http://mars.jpl.nasa.gov/m…
#>  4 Mars Hand Lens Imager   568 2014-03-12 wheel   http://mars.jpl.nasa.gov/m…
#>  5 Mars Hand Lens Imager   568 2014-03-12 wheel   http://mars.jpl.nasa.gov/m…
#> # … with 1,240 more rows
…
