…
# create a data frame of metadata with a plot column
dat <- ggplot2::mpg |>
  tidyr::nest(data = !dplyr::one_of(c("manufacturer", "class"))) |>
  dplyr::mutate(
    mean_cty = purrr::map_dbl(data, function(x) mean(x$cty)),
    panel = map_plot(data, function(x) ggplot2::qplot(hwy, cty, data = x))
  )

dat
#> # A tibble: 32 × 5
#>    manufacturer class   data              mean_cty panel     
#>    <chr>        <chr>   <list>               <dbl> <trllscp_>
#>  1 audi         compact <tibble [15 × 9]>     17.9 <gg>      
#>  2 audi         midsize <tibble [3 × 9]>      16   <gg>      
#>  3 chevrolet    suv     <tibble [9 × 9]>      12.7 <gg>      
#>  4 chevrolet    2seater <tibble [5 × 9]>      15.4 <gg>      
#>  5 chevrolet    midsize <tibble [5 × 9]>      18.8 <gg>      
#>  6 dodge        minivan <tibble [11 × 9]>     15.8 <gg>      
#>  7 dodge        pickup  <tibble [19 × 9]>     12.1 <gg>      
#>  8 dodge        suv     <tibble [7 × 9]>      11.9 <gg>      
#>  9 ford         suv     <tibble [9 × 9]>      12.9 <gg>      
#> 10 ford         pickup  <tibble [7 × 9]>      13   <gg>      
#> # … with 22 more rows
…
