Visualizing Large Datasets with Trelliscope • trelliscope
…
This could be a lot more interesting with more summaries such as the
median fare and distance per day, but we will keep it simple for this
example.

dsumm
#> # A tibble: 4,807 × 6
#>     year month   day      n date       wday 
#>    <int> <int> <int>  <int> <date>     <ord>
#>  1  2009     1     1 327625 2009-01-01 Thu  
#>  2  2009     1     2 376708 2009-01-02 Fri  
#>  3  2009     1     3 432710 2009-01-03 Sat  
#>  4  2009     1     4 367525 2009-01-04 Sun  
#>  5  2009     1     5 370901 2009-01-05 Mon  
#>  6  2009     1     6 427394 2009-01-06 Tue  
#>  7  2009     1     7 371043 2009-01-07 Wed  
#>  8  2009     1     8 477502 2009-01-08 Thu  
#>  9  2009     1     9 520846 2009-01-09 Fri  
#> 10  2009     1    10 483350 2009-01-10 Sat  
#> # ℹ 4,797 more rows
…
x <- filter(ds, year == 2009, month == 1, day == 1)

pd <- x %>%
  count(hour) %>%
  collect() %>%
  arrange(hour)

Our data to plot looks like this:

pd
#> # A tibble: 24 × 2
#>     hour     n
#>    <int> <int>
#>  1     0 15386
#>  2     1 16990
#>  3     2 15585
#>  4     3 13307
#>  5     4  9619
#>  6     5  5391
#>  7     6  3682
#>  8     7  2899
#>  9     8  2602
#> 10     9  3289
#> # ℹ 14 more rows
…
Now we can add a plot column, hourly_ct, to our summary
dataset with the plot function we defined above.

dsumm <- dsumm %>%
  mutate(hourly_ct = panel_lazy(plot_fn))

dsumm
#> # A tibble: 4,807 × 7
#>     year month   day      n date       wday  hourly_ct    
#>    <int> <int> <int>  <int> <date>     <ord> <lazy_panels>
#>  1  2009     1     1 327625 2009-01-01 Thu   <ggplot>     
#>  2  2009     1     2 376708 2009-01-02 Fri   <ggplot>     
#>  3  2009     1     3 432710 2009-01-03 Sat   <ggplot>     
#>  4  2009     1     4 367525 2009-01-04 Sun   <ggplot>     
#>  5  2009     1     5 370901 2009-01-05 Mon   <ggplot>     
#>  6  2009     1     6 427394 2009-01-06 Tue   <ggplot>     
#>  7  2009     1     7 371043 2009-01-07 Wed   <ggplot>     
#>  8  2009     1     8 477502 2009-01-08 Thu   <ggplot>     
#>  9  2009     1     9 520846 2009-01-09 Fri   <ggplot>     
#> 10  2009     1    10 483350 2009-01-10 Sat   <ggplot>     
#> # ℹ 4,797 more rows
#> # ℹ Use `print(n = ...)` to see more rows
…
