Creating Panel Columns • trelliscope
…
We will stick with the gapminder example for this article (using the
gap version of the gapminder data that comes with this
package). In the Introduction article, we showed how to visualize life
expectancy vs. time for each country with ggplot2 using
facet_panels() and as_panels_df().

gp <- (
  ggplot(gap, aes(year, life_exp)) +
    geom_point() +
    facet_panels(vars(country, continent, iso_alpha2))
  ) |>
  as_panels_df(panel_col = "lexp_time")

gp
#> # A tibble: 142 × 4
#>    country     continent iso_alpha2 lexp_time 
#>    <chr>       <fct>     <chr>      <ggpanels>
#>  1 Afghanistan Asia      AF         <ggplot>  
#>  2 Albania     Europe    AL         <ggplot>  
#>  3 Algeria     Africa    DZ         <ggplot>  
#>  4 Angola      Africa    AO         <ggplot>  
#>  5 Argentina   Americas  AR         <ggplot>  
#>  6 Australia   Oceania   AU         <ggplot>  
#>  7 Austria     Europe    AT         <ggplot>  
#>  8 Bahrain     Asia      BH         <ggplot>  
#>  9 Bangladesh  Asia      BD         <ggplot>  
#> 10 Belgium     Europe    BE         <ggplot>  
#> # ℹ 132 more rows
…
For example, consider the following simple summary dataset of mean
life expectancy and mean GDP per capita for each country in the
gapminder dataset.

gsumm <- gap %>%
  summarise(
    mean_lexp = mean(life_exp),
    mean_gdp = mean(gdp_percap),
    .by = c("continent", "country", "iso_alpha2")
  )
gsumm
#> # A tibble: 142 × 5
#>    continent country     iso_alpha2 mean_lexp mean_gdp
#>    <fct>     <chr>       <chr>          <dbl>    <dbl>
#>  1 Asia      Afghanistan AF              37.5     803.
#>  2 Europe    Albania     AL              68.4    3255.
#>  3 Africa    Algeria     DZ              59.0    4426.
#>  4 Africa    Angola      AO              37.9    3607.
#>  5 Americas  Argentina   AR              69.1    8956.
#>  6 Oceania   Australia   AU              74.7   19981.
#>  7 Europe    Austria     AT              73.1   20412.
#>  8 Asia      Bahrain     BH              65.6   18078.
#>  9 Asia      Bangladesh  BD              49.8     818.
#> 10 Europe    Belgium     BE              73.6   19901.
#> # ℹ 132 more rows
…
plot_fn(x)

Now all we need to do to add a new plot column to gsumm
is to use panel_lazy() which takes our plot function and
the full dataset as arguments.

gsumm <- gsumm %>%
  mutate(lexp_time = panel_lazy(plot_fn, gap))

gsumm
#> # A tibble: 142 × 6
#>    continent country     iso_alpha2 mean_lexp mean_gdp lexp_time    
#>    <fct>     <chr>       <chr>          <dbl>    <dbl> <lazy_panels>
#>  1 Asia      Afghanistan AF              37.5     803. <htmlwidget> 
#>  2 Europe    Albania     AL              68.4    3255. <htmlwidget> 
#>  3 Africa    Algeria     DZ              59.0    4426. <htmlwidget> 
#>  4 Africa    Angola      AO              37.9    3607. <htmlwidget> 
#>  5 Americas  Argentina   AR              69.1    8956. <htmlwidget> 
#>  6 Oceania   Australia   AU              74.7   19981. <htmlwidget> 
#>  7 Europe    Austria     AT              73.1   20412. <htmlwidget> 
#>  8 Asia      Bahrain     BH              65.6   18078. <htmlwidget> 
#>  9 Asia      Bangladesh  BD              49.8     818. <htmlwidget> 
#> 10 Europe    Belgium     BE              73.6   19901. <htmlwidget> 
#> # ℹ 132 more rows
…
If image or html assets exist on the web, you can create panel
columns pointing to these using panel_url(). For example,
suppose we want to add a column of flags for each country. This forked repository
contains image files for each country flag, where each file is named
using the country’s 2-letter code. We can use the
iso_alpha2 column in the gapminder dataset to construct the
URL for each flag.

flag_base_url <- "https://raw.githubusercontent.com/hafen/countryflags/master/png/512/"

gsumm <- mutate(gsumm,
  flag_url = panel_url(paste0(flag_base_url, iso_alpha2, ".png"))
)
gsumm
#> # A tibble: 142 × 7
#>    continent country     iso_alpha2 mean_lexp mean_gdp lexp_time     flag_url   
#>    <fct>     <chr>       <chr>          <dbl>    <dbl> <lazy_panels> <url_panel>
#>  1 Asia      Afghanistan AF              37.5     803. <htmlwidget>  <img>      
#>  2 Europe    Albania     AL              68.4    3255. <htmlwidget>  <img>      
#>  3 Africa    Algeria     DZ              59.0    4426. <htmlwidget>  <img>      
#>  4 Africa    Angola      AO              37.9    3607. <htmlwidget>  <img>      
#>  5 Americas  Argentina   AR              69.1    8956. <htmlwidget>  <img>      
#>  6 Oceania   Australia   AU              74.7   19981. <htmlwidget>  <img>      
#>  7 Europe    Austria     AT              73.1   20412. <htmlwidget>  <img>      
#>  8 Asia      Bahrain     BH              65.6   18078. <htmlwidget>  <img>      
#>  9 Asia      Bangladesh  BD              49.8     818. <htmlwidget>  <img>      
#> 10 Europe    Belgium     BE              73.6   19901. <htmlwidget>  <img>      
#> # ℹ 132 more rows
…
We can now create a panel column that points to these local
files.

gsumm <- mutate(gsumm,
  flag = panel_local(file.path(flag_path, "flags", paste0(iso_alpha2, ".png"))),
)
gsumm
#> # A tibble: 142 × 8
#>    continent country   iso_alpha2 mean_lexp mean_gdp lexp_time    flag_url flag 
#>    <fct>     <chr>     <chr>          <dbl>    <dbl> <lazy_panel> <url_pa> <loc>
#>  1 Asia      Afghanis… AF              37.5     803. <htmlwidget> <img>    <img>
#>  2 Europe    Albania   AL              68.4    3255. <htmlwidget> <img>    <img>
#>  3 Africa    Algeria   DZ              59.0    4426. <htmlwidget> <img>    <img>
#>  4 Africa    Angola    AO              37.9    3607. <htmlwidget> <img>    <img>
#>  5 Americas  Argentina AR              69.1    8956. <htmlwidget> <img>    <img>
#>  6 Oceania   Australia AU              74.7   19981. <htmlwidget> <img>    <img>
#>  7 Europe    Austria   AT              73.1   20412. <htmlwidget> <img>    <img>
#>  8 Asia      Bahrain   BH              65.6   18078. <htmlwidget> <img>    <img>
#>  9 Asia      Banglade… BD              49.8     818. <htmlwidget> <img>    <img>
#> 10 Europe    Belgium   BE              73.6   19901. <htmlwidget> <img>    <img>
#> # ℹ 132 more rows
…
