Introduction to Trelliscope • trelliscope
…
Pre-generated images

The simplest way to illustrate what we mean by a data frame of
visualizations is to start with an example where the images have already
been generated.

An example dataset that comes with the package contains images
captured by the Mars rover Curiosity.

library(trelliscope)

mars_rover
#> # A tibble: 1,245 × 5
#>    camera                  sol earth_date class   img_src                       
#>    <chr>                 <int> <chr>      <chr>   <chr>                         
#>  1 Mars Hand Lens Imager   565 2014-03-09 horizon http://mars.jpl.nasa.gov/msl-…
#>  2 Mars Hand Lens Imager   565 2014-03-09 horizon http://mars.jpl.nasa.gov/msl-…
#>  3 Mars Hand Lens Imager   568 2014-03-12 wheel   http://mars.jpl.nasa.gov/msl-…
#>  4 Mars Hand Lens Imager   568 2014-03-12 wheel   http://mars.jpl.nasa.gov/msl-…
#>  5 Mars Hand Lens Imager   568 2014-03-12 wheel   http://mars.jpl.nasa.gov/msl-…
#>  6 Mars Hand Lens Imager   568 2014-03-12 wheel   http://mars.jpl.nasa.gov/msl-…
#>  7 Mars Hand Lens Imager   568 2014-03-12 wheel   http://mars.jpl.nasa.gov/msl-…
#>  8 Mars Hand Lens Imager   568 2014-03-12 wheel   http://mars.jpl.nasa.gov/msl-…
#>  9 Mars Hand Lens Imager   568 2014-03-12 wheel   http://mars.jpl.nasa.gov/msl-…
#> 10 Mars Hand Lens Imager   568 2014-03-12 wheel   http://mars.jpl.nasa.gov/msl-…
#> # ℹ 1,235 more rows

This data frame has a column that references images on the web. The
other columns contain metadata about these images. We can create a
Trelliscope data frame with this data frame with the following:

d <- as_trelliscope_df(mars_rover, name = "mars rover", path = "mars")
#> ℹ Using img_src as image column
#> ℹ Using the variables "camera", "earth_date", "class", and "img_src" to
#>   uniquely identify each row of the data.
#> Warning: ! Trelliscope shoud only be rendered in RMarkdown when self_contained is false.
#>   Trelliscope always produces auxiliary files

d
#> ℹ Trelliscope data frame. Call show_info() for more information
#> # A tibble: 1,245 × 5
#>    camera                  sol earth_date class   `__PANEL_KEY__`               
#>    <chr>                 <int> <chr>      <chr>   <charactr>                    
#>  1 Mars Hand Lens Imager   565 2014-03-09 horizon http://mars.jpl.nasa.gov/msl-…
#>  2 Mars Hand Lens Imager   565 2014-03-09 horizon http://mars.jpl.nasa.gov/msl-…
#>  3 Mars Hand Lens Imager   568 2014-03-12 wheel   http://mars.jpl.nasa.gov/msl-…
#>  4 Mars Hand Lens Imager   568 2014-03-12 wheel   http://mars.jpl.nasa.gov/msl-…
#>  5 Mars Hand Lens Imager   568 2014-03-12 wheel   http://mars.jpl.nasa.gov/msl-…
#>  6 Mars Hand Lens Imager   568 2014-03-12 wheel   http://mars.jpl.nasa.gov/msl-…
#>  7 Mars Hand Lens Imager   568 2014-03-12 wheel   http://mars.jpl.nasa.gov/msl-…
#>  8 Mars Hand Lens Imager   568 2014-03-12 wheel   http://mars.jpl.nasa.gov/msl-…
#>  9 Mars Hand Lens Imager   568 2014-03-12 wheel   http://mars.jpl.nasa.gov/msl-…
#> 10 Mars Hand Lens Imager   568 2014-03-12 wheel   http://mars.jpl.nasa.gov/msl-…
#> # ℹ 1,235 more rows
…
R-generated visualizations

A likely more common use case when visualizing data during an
analysis will be that the images do not yet exist and we will be
creating them from subsets of the data we are analyzing. Trelliscope has
utilities to make this convenient for packages like ggplot2.

As a simple example, let’s consider the gapminder
dataset that originally comes with the gapminder
package. For convenience, we have included a modified version of the
dataset with the Trelliscope package.

gapminder
#> # A tibble: 1,476 × 9
#>    country   continent  year lifeExp    pop gdpPercap capital latitude longitude
#>    <chr>     <fct>     <int>   <dbl>  <int>     <dbl> <chr>      <dbl>     <dbl>
#>  1 Afghanis… Asia       1952    28.8 8.43e6      779. Kabul       34.5      69.2
#>  2 Afghanis… Asia       1957    30.3 9.24e6      821. Kabul       34.5      69.2
#>  3 Afghanis… Asia       1962    32.0 1.03e7      853. Kabul       34.5      69.2
#>  4 Afghanis… Asia       1967    34.0 1.15e7      836. Kabul       34.5      69.2
#>  5 Afghanis… Asia       1972    36.1 1.31e7      740. Kabul       34.5      69.2
#>  6 Afghanis… Asia       1977    38.4 1.49e7      786. Kabul       34.5      69.2
#>  7 Afghanis… Asia       1982    39.9 1.29e7      978. Kabul       34.5      69.2
#>  8 Afghanis… Asia       1987    40.8 1.39e7      852. Kabul       34.5      69.2
#>  9 Afghanis… Asia       1992    41.7 1.63e7      649. Kabul       34.5      69.2
#> 10 Afghanis… Asia       1997    41.8 2.22e7      635. Kabul       34.5      69.2
#> # ℹ 1,466 more rows
…
class(p)
#> [1] "facet_panels" "gg"           "ggplot"

As you can see, facet_panels() simply modifies your
ggplot object. If you print the resulting object p, a
Trelliscope display will be written and displayed. To take this and turn
it into a data frame of visualizations with one row for each
country/continent, we can apply the function
nest_panels().

p_nested <- nest_panels(p)

p_nested
#> # A tibble: 123 × 4
#>    country     continent data              panel     
#>    <chr>       <fct>     <list>            <nstd_pnl>
#>  1 Afghanistan Asia      <tibble [12 × 8]> <gg>      
#>  2 Albania     Europe    <tibble [12 × 8]> <gg>      
#>  3 Algeria     Africa    <tibble [12 × 8]> <gg>      
#>  4 Angola      Africa    <tibble [12 × 8]> <gg>      
#>  5 Argentina   Americas  <tibble [12 × 8]> <gg>      
#>  6 Australia   Oceania   <tibble [12 × 8]> <gg>      
#>  7 Austria     Europe    <tibble [12 × 8]> <gg>      
#>  8 Bahrain     Asia      <tibble [12 × 8]> <gg>      
#>  9 Bangladesh  Asia      <tibble [12 × 8]> <gg>      
#> 10 Belgium     Europe    <tibble [12 × 8]> <gg>      
#> # ℹ 113 more rows
…
Any column of atomic values in a Trelliscope data frame is
automatically considered as metadata. Therefore, to add new metadata
variables to the data, we can simply join or create any additional
columns to our data frame.

We will add on to our example from earlier by joining metadata to our
nested data frame from earlier that we can then use for sorting and
filtering in the Trelliscope viewing app.

Let’s remind ourselves of what is already in this data frame.

trell_df
#> ℹ Trelliscope data frame. Call show_info() for more information
#> # A tibble: 123 × 5
#>    country     continent data              panel      `__PANEL_KEY__`   
#>    <chr>       <fct>     <list>            <nstd_pnl> <chr>             
#>  1 Afghanistan Asia      <tibble [12 × 8]> <gg>       Afghanistan_Asia  
#>  2 Albania     Europe    <tibble [12 × 8]> <gg>       Albania_Europe    
#>  3 Algeria     Africa    <tibble [12 × 8]> <gg>       Algeria_Africa    
#>  4 Angola      Africa    <tibble [12 × 8]> <gg>       Angola_Africa     
#>  5 Argentina   Americas  <tibble [12 × 8]> <gg>       Argentina_Americas
#>  6 Australia   Oceania   <tibble [12 × 8]> <gg>       Australia_Oceania 
#>  7 Austria     Europe    <tibble [12 × 8]> <gg>       Austria_Europe    
#>  8 Bahrain     Asia      <tibble [12 × 8]> <gg>       Bahrain_Asia      
#>  9 Bangladesh  Asia      <tibble [12 × 8]> <gg>       Bangladesh_Asia   
#> 10 Belgium     Europe    <tibble [12 × 8]> <gg>       Belgium_Europe    
#> # ℹ 113 more rows
…
meta_df <- gapminder |>
  group_by(country, continent) |>
  summarise(
    mean_lifeExp = mean(lifeExp),
    min_lifeExp = min(lifeExp),
    mean_gdp = mean(gdpPercap),
    .groups = "drop"
  ) |>
  mutate(
    wiki_link = paste0("https://en.wikipedia.org/wiki/", country)
  )

meta_df
#> # A tibble: 123 × 6
#>    country     continent mean_lifeExp min_lifeExp mean_gdp wiki_link            
#>    <chr>       <fct>            <dbl>       <dbl>    <dbl> <chr>                
#>  1 Afghanistan Asia              37.5        28.8     803. https://en.wikipedia…
#>  2 Albania     Europe            68.4        55.2    3255. https://en.wikipedia…
#>  3 Algeria     Africa            59.0        43.1    4426. https://en.wikipedia…
#>  4 Angola      Africa            37.9        30.0    3607. https://en.wikipedia…
#>  5 Argentina   Americas          69.1        62.5    8956. https://en.wikipedia…
#>  6 Australia   Oceania           74.7        69.1   19981. https://en.wikipedia…
#>  7 Austria     Europe            73.1        66.8   20412. https://en.wikipedia…
#>  8 Bahrain     Asia              65.6        50.9   18078. https://en.wikipedia…
#>  9 Bangladesh  Asia              49.8        37.5     818. https://en.wikipedia…
#> 10 Belgium     Europe            73.6        68     19901. https://en.wikipedia…
#> # ℹ 113 more rows

With our metadata frame created we can now join it to the original
nested data frame with our panels stored in it to create a complete data
frame.

trell_df <- left_join(trell_df, meta_df, by = c("country", "continent"))

trell_df
#> ℹ Trelliscope data frame. Call show_info() for more information
#> # A tibble: 123 × 9
#>    country     continent data     panel `__PANEL_KEY__` mean_lifeExp min_lifeExp
#>    <chr>       <fct>     <list>   <nst> <chr>                  <dbl>       <dbl>
#>  1 Afghanistan Asia      <tibble> <gg>  Afghanistan_As…         37.5        28.8
#>  2 Albania     Europe    <tibble> <gg>  Albania_Europe          68.4        55.2
#>  3 Algeria     Africa    <tibble> <gg>  Algeria_Africa          59.0        43.1
#>  4 Angola      Africa    <tibble> <gg>  Angola_Africa           37.9        30.0
#>  5 Argentina   Americas  <tibble> <gg>  Argentina_Amer…         69.1        62.5
#>  6 Australia   Oceania   <tibble> <gg>  Australia_Ocea…         74.7        69.1
#>  7 Austria     Europe    <tibble> <gg>  Austria_Europe          73.1        66.8
#>  8 Bahrain     Asia      <tibble> <gg>  Bahrain_Asia            65.6        50.9
#>  9 Bangladesh  Asia      <tibble> <gg>  Bangladesh_Asia         49.8        37.5
#> 10 Belgium     Europe    <tibble> <gg>  Belgium_Europe          73.6        68  
#> # ℹ 113 more rows
#> # ℹ 2 more variables: mean_gdp <dbl>, wiki_link <chr>
…
